[
	{
		"media_id" : "340694",
		"title" : "Sgt. Kyle Jerome White in March 2014",
		"caption" : "Sgt. Kyle Jerome White poses for a photo, in March 2014. (Courtesy photo)",
		"original" : "/e2/c/images/2014/04/16/340694/original.jpg"
	},
	{
		"media_id" : "340267",
		"title" : "Spc. Kyle J. White Rests on Hike Up Mount",
		"caption" : "Spc. Kyle J. White resting from the 20-minute climb up the mountain to the trail home to Bella. (Courtesy Photo)",
		"original" : "/e2/c/images/2014/04/14/340267/original.jpg"
	},
	{
		"media_id" : "339848",
		"title" : "Sgt. Kyle White Photos",
		"caption" : "Spc. Kyle White checks out the trail ahead during a routine patrol in the area around Combat Outpost Ranch House, in Nuristan Province, Afghanistan, in Summer 2007. The trail they were on that day runs below COP Ranch House toward Aranas, Afghanistan. (Photo courtesy of Sgt. Kyle White)",
		"original" : "/e2/c/images/2014/04/10/339848/original.jpg",
		"video_id" : "3492758029001"
	},
	{
		"media_id" : "339821",
		"title" : "Sgt. Kyle White Photos",
		"caption" : "Spc. Kyle White pauses for a photo after the awards ceremony at Forward Operating Base Bell, in Nuristan Province, Afghanistan, in which he was awarded the Army Commendation Medal, with V device. In the photo are, from left to right, Sgt. Jose Canales, Spc. Jeff Shaw, Gen. Dan K. McNeill, the International Security Assistance Force commander, White, and Pfc. Gregg Rauwolf. (Photo courtesy of Capt. Matthew R. Myer)",
		"original" : "/e2/c/images/2014/04/10/339821/original.jpg"
	},
	{
		"media_id" : "339842",
		"title" : "Sgt. Kyle White Photos",
		"caption" : "Spc. Kyle White poses for a photo holding an M-249 Squad Automatic Weapon at Post 2, Combat Outpost Ranch House, in Nuristan Province, Afghanistan, in Summer 2007. (Photo courtesy of Sgt. Kyle White)",
		"original" : "/e2/c/images/2014/04/10/339842/original.jpg"
	},
	{
		"media_id" : "339843",
		"title" : "Sgt. Kyle White Photos",
		"caption" : "Spc. Kyle White poses for a photo while hiking Mt. Ranier, Wash., during a family outing, in Summer 2012. (Photo courtesy of Sgt. Kyle White)",
		"original" : "/e2/c/images/2014/04/10/339843/original.jpg"
	},
	{
		"media_id" : "339845",
		"title" : "Sgt. Kyle White Photos",
		"caption" : "Spc. Kyle White applies camouflage to Staff Sgt. James Takes before a mission, at Camp Blessing, Afghanistan, in Spring 2008. (Photo courtesy of Sgt. Kyle White)",
		"original" : "/e2/c/images/2014/04/10/339845/original.jpg"
	},
	{
		"media_id" : "339846",
		"title" : "Sgt. Kyle White Photos",
		"caption" : "Spc. Kyle White tries to stay warm during pre-deployment training in Hoenfels, Germany, in January 2007. White's unit was preparing to deploy to Afghanistan. (Photo courtesy of Sgt. Kyle White)",
		"original" : "/e2/c/images/2014/04/10/339846/original.jpg"
	},
	{
		"media_id" : "339823",
		"title" : "Sgt. Kyle White Photos",
		"caption" : "Spc. Kyle White stands guard at Combat Outpost Ranch House after an enemy attack Aug. 22, 2007. He was awarded the Army Commendation Medal, with V device, for his actions that day. There were 10 U.S. service members injured the attack that day. (Photo courtesy of Capt. Matthew R. Myer)",
		"original" : "/e2/c/images/2014/04/10/339823/original.jpg"
	},
	{
		"media_id" : "339824",
		"title" : "Sgt. Kyle White Photos",
		"caption" : "Spc. Kyle White takes a rest break during a mission in Kunar, Afghanistan, Oct. 10, 2007. (Photo courtesy of Capt. Matthew R. Myer)",
		"original" : "/e2/c/images/2014/04/10/339824/original.jpg"
	},
	{
		"media_id" : "339826",
		"title" : "Sgt. Kyle White Photos",
		"caption" : "Staff Sgt. Conrad Begaye awards Spc. Kyle White the Combat Infantryman Badge during a ceremony in Nuristan Province, Afghanistan, Nov. 6, 2007. The CIB is awarded to Infantry or Special Forces Soldiers who actively engage in ground combat with the enemy. (Photo courtesy of Capt. Matthew R. Myer)",
		"original" : "/e2/c/images/2014/04/10/339826/original.jpg"
	},
	{
		"media_id" : "339840",
		"title" : "Sgt. Kyle White Photos",
		"caption" : "1st Lt. Matthew C. Ferrara awards Spc. Kain Schilling the Combat Infantryman Badge, during a ceremony in Nuristan Province, Afghanistan, Nov. 6, 2007. The CIB is awarded to Infantry or Special Forces Soldiers who actively engage in ground combat with the enemy. (Photo courtesy of Sgt. Kyle White)",
		"original" : "/e2/c/images/2014/04/10/339840/original.jpg"
	},
	{
		"media_id" : "339822",
		"title" : "Sgt. Kyle White Photos",
		"caption" : "1st Lt. Matthew C. Ferrara awards Spc. Kain Schilling the Combat Infantryman Badge, during a ceremony in Nuristan Province, Afghanistan, Nov. 6, 2007. The CIB is awarded to Infantry or Special Forces Soldiers who actively engage in ground combat with the enemy. (Photo courtesy of Capt. Matthew R. Myer)",
		"original" : "/e2/c/images/2014/04/10/339822/original.jpg"
	},
	{
		"media_id" : "339841",
		"title" : "Sgt. Kyle White Photos",
		"caption" : "Cpl. Sean Kanae-Aldrique Langevin poses for a photo at Combat Outpost Ranch House, in July 2007. (Photo courtesy of 1st Sgt. William Stockard)",
		"original" : "/e2/c/images/2014/04/10/339841/original.jpg"
	},
	{
		"media_id" : "339831",
		"title" : "Sgt. Kyle White Photos",
		"caption" : "Members of 1st Platoon, Chosen Company, 2nd Battalion (Airborne), 503rd Infantry Regiment, 173rd Airborne Brigade, pause for a photo in Grafenwoehr, Germany, March 2007. (Photo courtesy of 1st Sgt. William Stockard)",
		"original" : "/e2/c/images/2014/04/10/339831/original.jpg"
	},
	{
		"media_id" : "339832",
		"title" : "Sgt. Kyle White Photos",
		"caption" : "Members of 1st Platoon, Chosen Company, 2nd Battalion (Airborne), 503rd Infantry Regiment, 173rd Airborne Brigade, pause for a photo in at Forward Operating Base Blessing, Afghanistan, March 2007. (Photo courtesy of 1st Sgt. William Stockard)",
		"original" : "/e2/c/images/2014/04/10/339832/original.jpg"
	},
	{
		"media_id" : "339847",
		"title" : "Sgt. Kyle White Photos",
		"caption" : "Spc. Kyle White took a picture after the battle of where an enemy round struck the butt stock of his weapon during the Nov. 9, 2007, ambush. The photo reminds him of how close he came to being shot by enemy forces that day. (Photo courtesy of Sgt. Kyle White)",
		"original" : "/e2/c/images/2014/04/10/339847/original.jpg"
	},
	{
		"media_id" : "339837",
		"title" : "Sgt. Kyle White Photos",
		"caption" : "This picture depicts a trail south of Forward Operating Base Bella, in the Waygal Valley, in Nuristan Province, Afghanistan. This is typical of the trails in the area, and of the trail the team was on when they were ambushed. (Photo courtesy of 1st Sgt. William Stockard)",
		"original" : "/e2/c/images/2014/04/10/339837/original.jpg"
	},
	{
		"media_id" : "339836",
		"title" : "Sgt. Kyle White Photos",
		"caption" : "This photo shows the impact of a 120mm white phosphorous round during mortar training in Afghanistan, in September 2007. (Photo courtesy of 1st Sgt. William Stockard)",
		"original" : "/e2/c/images/2014/04/10/339836/original.jpg"
	},
	{
		"media_id" : "339835",
		"title" : "Sgt. Kyle White Photos",
		"caption" : "This photo shows Combat Outpost Bella, in Nuristan Province, Afghanistan. (Photo courtesy of 1st Sgt. William Stockard)",
		"original" : "/e2/c/images/2014/04/10/339835/original.jpg"
	},
	{
		"media_id" : "339827",
		"title" : "Sgt. Kyle White Photos",
		"caption" : "This picture depicts a trail south of Forward Operating Base Bella, in the Waygal Valley, in Nuristan Province, Afghanistan. This is typical of the trails in the area, and of the trail the team was on when they were ambushed. (Photo courtesy of Capt. Matthew R. Myer)",
		"original" : "/e2/c/images/2014/04/10/339827/original.jpg"
	},
	{
		"media_id" : "339830",
		"title" : "Sgt. Kyle White Photos",
		"caption" : "This picture shows damage done to Combat Outpost Ranch House in Nuristan Province Afghanistan, after anti-coalition militia forces attacked Aug. 22, 2007. (Photo courtesy of Spc. Kain Schilling)",
		"original" : "/e2/c/images/2014/04/10/339830/original.jpg"
	},
	{
		"media_id" : "339833",
		"title" : "Sgt. Kyle White Photos",
		"caption" : "This is a photo of the village of Aranas, Afghanistan, near Combat Outpost Ranch House, taken in July 2007. (Photo courtesy of 1st Sgt. William Stockard)",
		"original" : "/e2/c/images/2014/04/10/339833/original.jpg"
	},
	{
		"media_id" : "339834",
		"title" : "Sgt. Kyle White Photos",
		"caption" : "This photo shows Combat Outpost Bella, in Nuristan Province, Afghanistan. (Photo courtesy of 1st Sgt. William Stockard)",
		"original" : "/e2/c/images/2014/04/10/339834/original.jpg"
	}
]